"VertexLitgeneric"
{
	"$basetexture" "environmentsx/liquidpump/vent"
	"$surfaceprop" "plastic"
	"$selfillum" 1
	"$selfillummask" "environmentsx/liquidpump/vent"
	"$selfillummaskscale" "2"
	"$model" 1
}
