"VertexLitGeneric"
{
	"$basetexture" "environmentsx/mediumreactor/diffuse"
	"$bumpmap" "environmentsx/mediumreactor/normal"
	"$normalmapalphaenvmapmask" "1"
	"$envmap" "env_cubemap"
	"$envmapcontrast" ".88"
	"$envmapsaturation" ".8"
	"$envmaptint" "[0.35 0.30 0]"
	"$surfaceprop" "solidmetal"
	"$model" 1
}
